u1939659_part2
…
  pull(f.code) %>%
  lapply(identity) %>%
  setNames(bestiar)
lbestiar=as.vector(lbestiar)
df.bestiar = emex.mostra %>%
  select_vars(lbestiar) %>%
  gather(bestiar, n, -mun) %>%
  group_by(mun) %>%
  na.omit() %>%
  summarise(
    bestiar = bestiar[which.max(n)]
    )
df.bestiar

## # A tibble: 96 x 2
##    mun                    bestiar       
##    <chr>                  <chr>         
##  1 Agullana               Aviram        
##  2 Aitona                 Aviram        
##  3 Albinyana              Aviram        
##  4 Albiol, l'             Conilles mares
##  5 Alfs                  Aviram        
##  6 Alins                  Aviram        
##  7 Almoster               Aviram        
##  8 Alpicat                Porcins       
##  9 Ametlla del Valls, l' Aviram        
## 10 Angls                 Aviram        
## # ... with 86 more rows
…
